{
    "receivingPilotName": "Receiver",
    "drones": [
        {
            "address": "0013A2004193CB48",
            "id": 50,
            "name": "M600 A"
        }
    ],
    "gsIp": "192.168.0.87",
    "gsTcpPort": "12345",
    "sendingPilotName": "Sender",
    "relays": [
        {
            "address": "0013A20041887882",
            "id": 151,
            "latitude": 28.128195,
            "longitude": 82.874555,
            "name": "Relay A"
        },
        {
            "address": "FF00FF00FF00FF00",
            "id": 152,
            "latitude": 28.075061,
            "longitude": 82.839317,
            "name": "Relay B"
        },
        {
            "address": "FF00FF00FF00FF00",
            "id": 153,
            "latitude": 28.116112,
            "longitude": 82.834716,
            "name": "Relay C"
        }
    ],
    "serialBaudrate": 115200,
    "stations": [
        {
            "address": "0013A2004188786E",
            "id": 101,
            "latitude": 28.103866962190665,
            "local": false,
            "longitude": 82.85372614771416,
            "name": "Pyuthan Hospital"
        },
        {
            "address": "FF00FF00FF00FF00",
            "id": 102,
            "latitude": 28.099150567937354,
            "local": true,
            "longitude": 82.85030413654863,
            "name": "Aayushma"
        },
        {
            "address": "FF00FF00FF00FF00",
            "id": 103,
            "latitude": 28.13145123424568,
            "local": false,
            "longitude": 82.8947422191747,
            "name": "Dharmawati"
        },
        {
            "address": "FF00FF00FF00FF00",
            "id": 104,
            "latitude": 28.106591567725562,
            "local": false,
            "longitude": 82.81636375331902,
            "name": "Addapata"
        },
        {
            "address": "FF00FF00FF00FF00",
            "id": 105,
            "latitude": 28.10387322196331,
            "local": false,
            "longitude": 82.8537390000995,
            "name": "Majhakot"
        }
    ],
    "undefined": [
        {
            "id": 200,
            "name": "Webserver 1"
        }
    ],
    "useConnectionApi": true,
    "useDjiMissions": false,
    "webserverIp": "51.75.168.103",
    "webserverTcpPort": "9929"
}
